{
    "name": "Blum",
    "description": "This is a Twitter Bootstrap3 multilanguage theme that can be configured for one or more languages.",
    "license": "BSD-3-Clause",
    "keywords": [
        "solidshops",
        "twitter bootstrap",
        "multilanguage"
    ],
    "homepage": "http://www.solidshops.com",
    "authors": [
        {
            "name": "SolidShops",
            "email": "support@solidshops.com",
            "homepage": "http://www.solidshops.com",
            "Company": "SolidShops"
        }
    ],
    "meta": {
        "template": {
            "cart": {
                "description": "cart template"
            },
            "index": {
                "description": "index template"
            },
            "contact": {
                "description": "contact template"
            },
            "page": {
                "description": "page template"
            }
        },
        "partial": {
            "pagination": {
                "description": "pagination"
            },
            "row_header": {
                "description": "row_header"
            },
            "row_footer": {
                "description": "footer template"
            }
        },
        "css": {
            "theme": {
                "description": "a dummy theme css file"
            }
        }
    }
}